%!PS-Adobe-3.0
%%Creator: graphviz version 2.34.0 (20130907.0228)
%%Title: FST
%%Pages: (atend)
%%BoundingBox: (atend)
%%EndComments
save
%%BeginProlog
/DotDict 200 dict def
DotDict begin

/setupLatin1 {
mark
/EncodingVector 256 array def
 EncodingVector 0

ISOLatin1Encoding 0 255 getinterval putinterval
EncodingVector 45 /hyphen put

% Set up ISO Latin 1 character encoding
/starnetISO {
        dup dup findfont dup length dict begin
        { 1 index /FID ne { def }{ pop pop } ifelse
        } forall
        /Encoding EncodingVector def
        currentdict end definefont
} def
/Times-Roman starnetISO def
/Times-Italic starnetISO def
/Times-Bold starnetISO def
/Times-BoldItalic starnetISO def
/Helvetica starnetISO def
/Helvetica-Oblique starnetISO def
/Helvetica-Bold starnetISO def
/Helvetica-BoldOblique starnetISO def
/Courier starnetISO def
/Courier-Oblique starnetISO def
/Courier-Bold starnetISO def
/Courier-BoldOblique starnetISO def
cleartomark
} bind def

%%BeginResource: procset graphviz 0 0
/coord-font-family /Times-Roman def
/default-font-family /Times-Roman def
/coordfont coord-font-family findfont 8 scalefont def

/InvScaleFactor 1.0 def
/set_scale {
       dup 1 exch div /InvScaleFactor exch def
       scale
} bind def

% styles
/solid { [] 0 setdash } bind def
/dashed { [9 InvScaleFactor mul dup ] 0 setdash } bind def
/dotted { [1 InvScaleFactor mul 6 InvScaleFactor mul] 0 setdash } bind def
/invis {/fill {newpath} def /stroke {newpath} def /show {pop newpath} def} bind def
/bold { 2 setlinewidth } bind def
/filled { } bind def
/unfilled { } bind def
/rounded { } bind def
/diagonals { } bind def
/tapered { } bind def

% hooks for setting color 
/nodecolor { sethsbcolor } bind def
/edgecolor { sethsbcolor } bind def
/graphcolor { sethsbcolor } bind def
/nopcolor {pop pop pop} bind def

/beginpage {	% i j npages
	/npages exch def
	/j exch def
	/i exch def
	/str 10 string def
	npages 1 gt {
		gsave
			coordfont setfont
			0 0 moveto
			(\() show i str cvs show (,) show j str cvs show (\)) show
		grestore
	} if
} bind def

/set_font {
	findfont exch
	scalefont setfont
} def

% draw text fitted to its expected width
/alignedtext {			% width text
	/text exch def
	/width exch def
	gsave
		width 0 gt {
			[] 0 setdash
			text stringwidth pop width exch sub text length div 0 text ashow
		} if
	grestore
} def

/boxprim {				% xcorner ycorner xsize ysize
		4 2 roll
		moveto
		2 copy
		exch 0 rlineto
		0 exch rlineto
		pop neg 0 rlineto
		closepath
} bind def

/ellipse_path {
	/ry exch def
	/rx exch def
	/y exch def
	/x exch def
	matrix currentmatrix
	newpath
	x y translate
	rx ry scale
	0 0 1 0 360 arc
	setmatrix
} bind def

/endpage { showpage } bind def
/showpage { } def

/layercolorseq
	[	% layer color sequence - darkest to lightest
		[0 0 0]
		[.2 .8 .8]
		[.4 .8 .8]
		[.6 .8 .8]
		[.8 .8 .8]
	]
def

/layerlen layercolorseq length def

/setlayer {/maxlayer exch def /curlayer exch def
	layercolorseq curlayer 1 sub layerlen mod get
	aload pop sethsbcolor
	/nodecolor {nopcolor} def
	/edgecolor {nopcolor} def
	/graphcolor {nopcolor} def
} bind def

/onlayer { curlayer ne {invis} if } def

/onlayers {
	/myupper exch def
	/mylower exch def
	curlayer mylower lt
	curlayer myupper gt
	or
	{invis} if
} def

/curlayer 0 def

%%EndResource
%%EndProlog
%%BeginSetup
14 default-font-family set_font
1 setmiterlimit
% /arrowlength 10 def
% /arrowwidth 5 def

% make sure pdfmark is harmless for PS-interpreters other than Distiller
/pdfmark where {pop} {userdict /pdfmark /cleartomark load put} ifelse
% make '<<' and '>>' safe on PS Level 1 devices
/languagelevel where {pop languagelevel}{1} ifelse
2 lt {
    userdict (<<) cvn ([) cvn load put
    userdict (>>) cvn ([) cvn load put
} if

%%EndSetup
setupLatin1
%%Page: 1 1
%%PageBoundingBox: 230 90 382 702
%%PageOrientation: Landscape
0 0 1 beginpage
gsave
230 90 152 612 boxprim clip newpath
0.822581 0.822581 set_scale 90 rotate 113.412 -460 translate
% 0
gsave
2 setlinewidth
bold
0 0 0 nodecolor
18 47 18 18 ellipse_path stroke
0 0 0 nodecolor
14 /Times-Roman set_font
14 43.3 moveto 8 (0) alignedtext
grestore
% 1
gsave
1 setlinewidth
solid
0 0 0 nodecolor
110 72 18 18 ellipse_path stroke
0 0 0 nodecolor
14 /Times-Roman set_font
106 68.3 moveto 8 (1) alignedtext
grestore
% 0->1
gsave
1 setlinewidth
0 0 0 edgecolor
newpath 35.51 51.59 moveto
48.62 55.23 67.21 60.39 82.42 64.62 curveto
stroke
0 0 0 edgecolor
newpath 81.72 68.05 moveto
92.29 67.36 lineto
83.59 61.31 lineto
closepath fill
1 setlinewidth
solid
0 0 0 edgecolor
newpath 81.72 68.05 moveto
92.29 67.36 lineto
83.59 61.31 lineto
closepath stroke
0 0 0 edgecolor
14 /Times-Roman set_font
51.5 65.8 moveto 25 (A:A) alignedtext
grestore
% 2
gsave
1 setlinewidth
solid
0 0 0 nodecolor
110 18 18 18 ellipse_path stroke
0 0 0 nodecolor
14 /Times-Roman set_font
106 14.3 moveto 8 (2) alignedtext
grestore
% 0->2
gsave
1 setlinewidth
0 0 0 edgecolor
newpath 35.51 41.68 moveto
48.7 37.43 67.45 31.39 82.7 26.47 curveto
stroke
0 0 0 edgecolor
newpath 84.15 29.68 moveto
92.6 23.29 lineto
82.01 23.02 lineto
closepath fill
1 setlinewidth
solid
0 0 0 edgecolor
newpath 84.15 29.68 moveto
92.6 23.29 lineto
82.01 23.02 lineto
closepath stroke
0 0 0 edgecolor
14 /Times-Roman set_font
53.5 38.8 moveto 21 (A:ε) alignedtext
grestore
% 3
gsave
1 setlinewidth
solid
0 0 0 nodecolor
302 58 18 18 ellipse_path stroke
0 0 0 nodecolor
14 /Times-Roman set_font
298 54.3 moveto 8 (3) alignedtext
grestore
% 1->3
gsave
1 setlinewidth
0 0 0 edgecolor
newpath 128.2 70.73 moveto
161.33 68.29 234.25 62.92 273.95 59.99 curveto
stroke
0 0 0 edgecolor
newpath 274.26 63.48 moveto
283.98 59.25 lineto
273.75 56.5 lineto
closepath fill
1 setlinewidth
solid
0 0 0 edgecolor
newpath 274.26 63.48 moveto
283.98 59.25 lineto
273.75 56.5 lineto
closepath stroke
0 0 0 edgecolor
14 /Times-Roman set_font
185.5 69.8 moveto 25 (A:A) alignedtext
grestore
% 4
gsave
1 setlinewidth
solid
0 0 0 nodecolor
198 123 18 18 ellipse_path stroke
0 0 0 nodecolor
14 /Times-Roman set_font
194 119.3 moveto 8 (4) alignedtext
grestore
% 1->4
gsave
1 setlinewidth
0 0 0 edgecolor
newpath 125.98 80.88 moveto
139.05 88.64 158.24 100.02 173.38 108.99 curveto
stroke
0 0 0 edgecolor
newpath 171.81 112.13 moveto
182.19 114.22 lineto
175.38 106.11 lineto
closepath fill
1 setlinewidth
solid
0 0 0 edgecolor
newpath 171.81 112.13 moveto
182.19 114.22 lineto
175.38 106.11 lineto
closepath stroke
0 0 0 edgecolor
14 /Times-Roman set_font
143.5 106.8 moveto 21 (A:ε) alignedtext
grestore
% 5
gsave
1 setlinewidth
solid
0 0 0 nodecolor
198 18 18 18 ellipse_path stroke
0 0 0 nodecolor
14 /Times-Roman set_font
194 14.3 moveto 8 (5) alignedtext
grestore
% 2->5
gsave
1 setlinewidth
0 0 0 edgecolor
newpath 128.4 18 moveto
140.25 18 156.18 18 169.71 18 curveto
stroke
0 0 0 edgecolor
newpath 169.92 21.5 moveto
179.92 18 lineto
169.92 14.5 lineto
closepath fill
1 setlinewidth
solid
0 0 0 edgecolor
newpath 169.92 21.5 moveto
179.92 18 lineto
169.92 14.5 lineto
closepath stroke
0 0 0 edgecolor
14 /Times-Roman set_font
143.5 21.8 moveto 21 (A:ε) alignedtext
grestore
% 6
gsave
1 setlinewidth
solid
0 0 0 nodecolor
406 113 18 18 ellipse_path stroke
0 0 0 nodecolor
14 /Times-Roman set_font
402 109.3 moveto 8 (6) alignedtext
grestore
% 3->6
gsave
1 setlinewidth
0 0 0 edgecolor
newpath 318.49 66.35 moveto
335.06 75.29 361.56 89.58 380.87 99.99 curveto
stroke
0 0 0 edgecolor
newpath 379.23 103.08 moveto
389.7 104.75 lineto
382.56 96.92 lineto
closepath fill
1 setlinewidth
solid
0 0 0 edgecolor
newpath 379.23 103.08 moveto
389.7 104.75 lineto
382.56 96.92 lineto
closepath stroke
0 0 0 edgecolor
14 /Times-Roman set_font
342.5 98.8 moveto 23 (B:B) alignedtext
grestore
% 7
gsave
1 setlinewidth
solid
0 0 0 nodecolor
406 47 18 18 ellipse_path stroke
0 0 0 nodecolor
14 /Times-Roman set_font
402 43.3 moveto 8 (7) alignedtext
grestore
% 3->7
gsave
1 setlinewidth
0 0 0 edgecolor
newpath 319.06 51.99 moveto
324.09 50.37 329.71 48.85 335 48 curveto
348.97 45.77 364.71 45.36 377.72 45.57 curveto
stroke
0 0 0 edgecolor
newpath 377.81 49.08 moveto
387.91 45.88 lineto
378.02 42.08 lineto
closepath fill
1 setlinewidth
solid
0 0 0 edgecolor
newpath 377.81 49.08 moveto
387.91 45.88 lineto
378.02 42.08 lineto
closepath stroke
0 0 0 edgecolor
14 /Times-Roman set_font
344 51.8 moveto 20 (B:ε) alignedtext
grestore
% 8
gsave
1 setlinewidth
solid
0 0 0 nodecolor
302 123 18 18 ellipse_path stroke
0 0 0 nodecolor
14 /Times-Roman set_font
298 119.3 moveto 8 (8) alignedtext
grestore
% 4->8
gsave
1 setlinewidth
0 0 0 edgecolor
newpath 216.3 123 moveto
232.08 123 255.64 123 273.91 123 curveto
stroke
0 0 0 edgecolor
newpath 273.95 126.5 moveto
283.95 123 lineto
273.95 119.5 lineto
closepath fill
1 setlinewidth
solid
0 0 0 edgecolor
newpath 273.95 126.5 moveto
283.95 123 lineto
273.95 119.5 lineto
closepath stroke
0 0 0 edgecolor
14 /Times-Roman set_font
240 126.8 moveto 20 (B:ε) alignedtext
grestore
% 5->3
gsave
1 setlinewidth
0 0 0 edgecolor
newpath 215.29 23.33 moveto
229.59 28.12 250.86 35.53 269 43 curveto
271.38 43.98 273.85 45.04 276.3 46.14 curveto
stroke
0 0 0 edgecolor
newpath 274.96 49.37 moveto
285.51 50.37 lineto
277.89 43.01 lineto
closepath fill
1 setlinewidth
solid
0 0 0 edgecolor
newpath 274.96 49.37 moveto
285.51 50.37 lineto
277.89 43.01 lineto
closepath stroke
0 0 0 edgecolor
14 /Times-Roman set_font
231 46.8 moveto 38 (ε:A_A) alignedtext
grestore
% 9
gsave
1 setlinewidth
solid
0 0 0 nodecolor
600 100 18 18 ellipse_path stroke
0 0 0 nodecolor
14 /Times-Roman set_font
596 96.3 moveto 8 (9) alignedtext
grestore
% 6->9
gsave
1 setlinewidth
0 0 0 edgecolor
newpath 424.04 111.85 moveto
457.41 109.59 531.64 104.56 571.85 101.84 curveto
stroke
0 0 0 edgecolor
newpath 572.26 105.32 moveto
582 101.15 lineto
571.79 98.33 lineto
closepath fill
1 setlinewidth
solid
0 0 0 edgecolor
newpath 572.26 105.32 moveto
582 101.15 lineto
571.79 98.33 lineto
closepath stroke
0 0 0 edgecolor
14 /Times-Roman set_font
482.5 111.8 moveto 23 (B:B) alignedtext
grestore
% 10
gsave
1 setlinewidth
solid
0 0 0 nodecolor
494 156 20.3 20.3 ellipse_path stroke
0 0 0 nodecolor
14 /Times-Roman set_font
486.5 152.3 moveto 15 (10) alignedtext
grestore
% 6->10
gsave
1 setlinewidth
0 0 0 edgecolor
newpath 422.38 120.69 moveto
434.66 126.83 452.16 135.58 466.67 142.84 curveto
stroke
0 0 0 edgecolor
newpath 465.18 146 moveto
475.69 147.34 lineto
468.31 139.74 lineto
closepath fill
1 setlinewidth
solid
0 0 0 edgecolor
newpath 465.18 146 moveto
475.69 147.34 lineto
468.31 139.74 lineto
closepath stroke
0 0 0 edgecolor
14 /Times-Roman set_font
439 141.8 moveto 20 (B:ε) alignedtext
grestore
% 11
gsave
1 setlinewidth
solid
0 0 0 nodecolor
494 47 20.3 20.3 ellipse_path stroke
0 0 0 nodecolor
14 /Times-Roman set_font
486.5 43.3 moveto 15 (11) alignedtext
grestore
% 7->11
gsave
1 setlinewidth
0 0 0 edgecolor
newpath 424.4 47 moveto
435.6 47 450.44 47 463.45 47 curveto
stroke
0 0 0 edgecolor
newpath 463.83 50.5 moveto
473.83 47 lineto
463.83 43.5 lineto
closepath fill
1 setlinewidth
solid
0 0 0 edgecolor
newpath 463.83 50.5 moveto
473.83 47 lineto
463.83 43.5 lineto
closepath stroke
0 0 0 edgecolor
14 /Times-Roman set_font
439 50.8 moveto 20 (B:ε) alignedtext
grestore
% 8->6
gsave
1 setlinewidth
0 0 0 edgecolor
newpath 320.3 121.3 moveto
336.08 119.76 359.64 117.45 377.91 115.66 curveto
stroke
0 0 0 edgecolor
newpath 378.34 119.13 moveto
387.95 114.67 lineto
377.66 112.16 lineto
closepath fill
1 setlinewidth
solid
0 0 0 edgecolor
newpath 378.34 119.13 moveto
387.95 114.67 lineto
377.66 112.16 lineto
closepath stroke
0 0 0 edgecolor
14 /Times-Roman set_font
335.5 122.8 moveto 37 (ε:A_B) alignedtext
grestore
% 12
gsave
1 setlinewidth
solid
0 0 0 nodecolor
712 130 20.27 20.27 ellipse_path stroke
1 setlinewidth
solid
0 0 0 nodecolor
712 130 24.3 24.3 ellipse_path stroke
0 0 0 nodecolor
14 /Times-Roman set_font
704.5 126.3 moveto 15 (12) alignedtext
grestore
% 9->12
gsave
1 setlinewidth
0 0 0 edgecolor
newpath 617.71 104.56 moveto
633.85 108.96 658.73 115.75 678.74 121.2 curveto
stroke
0 0 0 edgecolor
newpath 677.83 124.58 moveto
688.4 123.84 lineto
679.67 117.83 lineto
closepath fill
1 setlinewidth
solid
0 0 0 edgecolor
newpath 677.83 124.58 moveto
688.4 123.84 lineto
679.67 117.83 lineto
closepath stroke
0 0 0 edgecolor
14 /Times-Roman set_font
641.5 122.8 moveto 25 (A:A) alignedtext
grestore
% 13
gsave
1 setlinewidth
solid
0 0 0 nodecolor
600 156 20.3 20.3 ellipse_path stroke
0 0 0 nodecolor
14 /Times-Roman set_font
592.5 152.3 moveto 15 (13) alignedtext
grestore
% 10->13
gsave
1 setlinewidth
0 0 0 edgecolor
newpath 514.56 156 moveto
529.96 156 551.68 156 569.23 156 curveto
stroke
0 0 0 edgecolor
newpath 569.53 159.5 moveto
579.53 156 lineto
569.53 152.5 lineto
closepath fill
1 setlinewidth
solid
0 0 0 edgecolor
newpath 569.53 159.5 moveto
579.53 156 lineto
569.53 152.5 lineto
closepath stroke
0 0 0 edgecolor
14 /Times-Roman set_font
536.5 159.8 moveto 21 (A:ε) alignedtext
grestore
% 11->9
gsave
1 setlinewidth
0 0 0 edgecolor
newpath 513.48 52.52 moveto
527.97 57.23 548.41 64.71 565 74 curveto
569.31 76.41 573.68 79.33 577.78 82.32 curveto
stroke
0 0 0 edgecolor
newpath 575.66 85.11 moveto
585.72 88.44 lineto
579.93 79.56 lineto
closepath fill
1 setlinewidth
solid
0 0 0 edgecolor
newpath 575.66 85.11 moveto
585.72 88.44 lineto
579.93 79.56 lineto
closepath stroke
0 0 0 edgecolor
14 /Times-Roman set_font
529 77.8 moveto 36 (ε:B_B) alignedtext
grestore
% 13->12
gsave
1 setlinewidth
0 0 0 edgecolor
newpath 619.66 151.59 moveto
635.77 147.78 659.4 142.2 678.59 137.66 curveto
stroke
0 0 0 edgecolor
newpath 679.51 141.04 moveto
688.44 135.33 lineto
677.9 134.23 lineto
closepath fill
1 setlinewidth
solid
0 0 0 edgecolor
newpath 679.51 141.04 moveto
688.44 135.33 lineto
677.9 134.23 lineto
closepath stroke
0 0 0 edgecolor
14 /Times-Roman set_font
635.5 150.8 moveto 37 (ε:B_A) alignedtext
grestore
endpage
showpage
grestore
%%PageTrailer
%%EndPage: 1
%%Trailer
%%Pages: 1
%%BoundingBox: 230 90 382 702
end
restore
%%EOF
